0	-0.296293950575	-0.295788764954
5	-0.314703050594	0.295221328735
10	-0.330746735526	1.021296978
15	-0.344270739171	1.86603975296
20	-0.355120795327	2.98613739014
25	-0.363348326061	5.46926021576
30	-0.368747643106	13.1472330093
35	-0.371370168527	34.9928917885
40	-0.371164480259	85.232950449
45	-0.368130578301	176.801463127
50	-0.362268462652	307.939284563
55	-0.353680977448	451.593997538
60	-0.342368122688	561.606257766
65	-0.328484164574	597.296057463
70	-0.312080525172	548.358491465
75	-0.293311470684	439.058793481
80	-0.272331267311	310.124759063
85	-0.249242759188	195.725383669
90	-0.224251634582	111.949391007
95	-0.197615003829	58.9673225284
100	-0.169435711063	29.1566133499
105	-0.13997086662	13.8933234215
110	-0.109426158769	6.65086650848
115	-0.0780586978433	3.41276502609
120	-0.0460741721131	2.02275800705
125	-0.0137811139802	1.43988704681
130	0.0186662103538	1.20815420151
135	0.0509078464196	1.14326477051
140	0.0828409500828	1.16806793213
145	0.114105566874	1.23772525787
150	0.144496008524	1.31392478943
155	0.173755164699	1.36120891571
160	0.201728769196	1.34939479828
165	0.22815971168	1.25473499298
170	0.252842303884	1.05840206146
175	0.275622279605	0.743834495544
180	0.296293950575	0.295788288116
185	0.314703050594	-0.295225143433
190	0.330746735526	-1.02130794525
195	0.344270739171	-1.86606502533
200	0.355120795327	-2.98618984222
205	0.363348326061	-5.46935844421
210	0.368747643106	-13.1473779678
215	0.371370168527	-34.9929847717
220	0.371164480259	-85.2326462269
225	0.368130578301	-176.80005312
230	0.362268462652	-307.93581605
235	0.353680977448	-451.587746263
240	0.342368122688	-561.597314298
245	0.328484164574	-597.285537139
250	0.312080525172	-548.348102048
255	0.293311470684	-439.050049406
260	0.272331267311	-310.118411765
265	0.249242759188	-195.721375346
270	0.224251634582	-111.947183937
275	0.197615003829	-58.9662812352
280	0.169435711063	-29.1562285423
285	0.13997086662	-13.8932691813
290	0.109426158769	-6.6509604454
295	0.0780586978433	-3.41290998459
300	0.0460741721131	-2.02290606499
305	0.0137811139802	-1.44001102448
310	-0.0186662103538	-1.20824575424
315	-0.0509078464196	-1.14332437515
320	-0.0828409500828	-1.1681022644
325	-0.114105566874	-1.23774337769
330	-0.144496008524	-1.31393289566
335	-0.173755164699	-1.36121177673
340	-0.201728769196	-1.3493938446
345	-0.22815971168	-1.25473356247
350	-0.252842303884	-1.05839967728
355	-0.275622279605	-0.743832588196
360	-0.296293950575	-0.295787811279
